-- phpMyAdmin SQL Dump
-- version 4.9.0.1
-- https://www.phpmyadmin.net/
--
-- Host: localhost:8889
-- Generation Time: Dec 06, 2019 at 04:15 PM
-- Server version: 5.7.26
-- PHP Version: 7.3.8

SET SQL_MODE = "NO_AUTO_VALUE_ON_ZERO";
SET time_zone = "+00:00";

--
-- Database: `Attendance_System`
--

-- --------------------------------------------------------

--
-- Table structure for table `Admin`
--

CREATE TABLE `Admin` (
  `AdminID` int(11) NOT NULL,
  `AdminName` varchar(20) NOT NULL,
  `Password` varchar(20) NOT NULL
) ENGINE=InnoDB DEFAULT CHARSET=utf8;

--
-- Dumping data for table `Admin`
--

INSERT INTO `Admin` (`AdminID`, `AdminName`, `Password`) VALUES
(111111111, 'Admin1', '111111111'),
(222222222, 'Admin2', '222222222'),
(333333333, 'Admin3', '333333333'),
(444444444, 'Admin4', '444444444'),
(555555555, 'Admin5', '555555555'),
(666666666, 'Admin6', '666666666'),
(777777777, 'Admin7', '777777777'),
(888888888, 'Admin8', '888888888'),
(999999999, 'Admin9', '999999999');

-- --------------------------------------------------------

--
-- Table structure for table `Attendent`
--

CREATE TABLE `Attendent` (
  `StudentID` int(10) NOT NULL,
  `LessionID` int(10) NOT NULL,
  `AttendTime` time NOT NULL
) ENGINE=InnoDB DEFAULT CHARSET=utf8;

--
-- Dumping data for table `Attendent`
--

INSERT INTO `Attendent` (`StudentID`, `LessionID`, `AttendTime`) VALUES
(180006006, 3, '15:00:00'),
(180006006, 4, '10:30:00'),
(180006006, 15, '15:00:00'),
(180006006, 16, '10:00:00'),
(180006006, 21, '15:00:00'),
(180006006, 22, '10:00:00'),
(180006006, 27, '15:00:00'),
(180006006, 28, '10:00:00'),
(180006006, 33, '15:00:00'),
(180006006, 34, '10:00:00'),
(180006006, 39, '15:00:00'),
(180006006, 40, '10:00:00'),
(180006006, 45, '15:00:00'),
(180006006, 46, '10:00:00'),
(180006006, 51, '15:00:00'),
(180006006, 52, '10:00:00'),
(180006006, 57, '15:00:00'),
(180006006, 58, '10:00:00'),
(180006006, 63, '15:00:00'),
(180006006, 64, '10:00:00');

-- --------------------------------------------------------

--
-- Table structure for table `Class`
--

CREATE TABLE `Class` (
  `ClassID` varchar(2) NOT NULL,
  `ProgramID` varchar(10) NOT NULL
) ENGINE=InnoDB DEFAULT CHARSET=utf8;

--
-- Dumping data for table `Class`
--

INSERT INTO `Class` (`ClassID`, `ProgramID`) VALUES
('A', 'IT114105'),
('B', 'IT114105'),
('C', 'IT114105'),
('A', 'IT114107'),
('B', 'IT114107'),
('C', 'IT114107'),
('D', 'IT114107');

-- --------------------------------------------------------

--
-- Table structure for table `Lesson`
--

CREATE TABLE `Lesson` (
  `LessionID` int(10) NOT NULL,
  `ModuleID` varchar(10) NOT NULL,
  `ClassID` varchar(2) NOT NULL,
  `ProgramID` varchar(10) NOT NULL,
  `Date` date NOT NULL,
  `Time` time NOT NULL,
  `Duration` decimal(10,1) NOT NULL
) ENGINE=InnoDB DEFAULT CHARSET=utf8;

--
-- Dumping data for table `Lesson`
--

INSERT INTO `Lesson` (`LessionID`, `ModuleID`, `ClassID`, `ProgramID`, `Date`, `Time`, `Duration`) VALUES
(1, 'ITP4506', 'A', 'IT114105', '2019-09-30', '08:00:00', '2.0'),
(2, 'ITP4506', 'A', 'IT114105', '2019-10-01', '12:30:00', '2.5'),
(3, 'ITP4507', 'A', 'IT114105', '2019-10-01', '15:00:00', '2.0'),
(4, 'ITP4507', 'A', 'IT114105', '2019-10-02', '10:00:00', '2.5'),
(5, 'ITP4511', 'A', 'IT114105', '2019-10-03', '08:30:00', '2.0'),
(6, 'ITP4511', 'A', 'IT114105', '2019-10-04', '12:30:00', '2.5'),
(13, 'ITP4506', 'A', 'IT114105', '2019-10-07', '08:00:00', '2.0'),
(14, 'ITP4506', 'A', 'IT114105', '2019-10-08', '12:30:00', '2.5'),
(15, 'ITP4507', 'A', 'IT114105', '2019-10-08', '15:00:00', '2.0'),
(16, 'ITP4507', 'A', 'IT114105', '2019-10-09', '10:00:00', '2.5'),
(17, 'ITP4511', 'A', 'IT114105', '2019-10-10', '08:30:00', '2.0'),
(18, 'ITP4511', 'A', 'IT114105', '2019-10-11', '12:30:00', '2.5'),
(19, 'ITP4506', 'A', 'IT114105', '2019-10-14', '08:00:00', '2.0'),
(20, 'ITP4506', 'A', 'IT114105', '2019-10-15', '12:30:00', '2.5'),
(21, 'ITP4507', 'A', 'IT114105', '2019-10-15', '15:00:00', '2.0'),
(22, 'ITP4507', 'A', 'IT114105', '2019-10-16', '10:00:00', '2.5'),
(23, 'ITP4511', 'A', 'IT114105', '2019-10-17', '08:30:00', '2.0'),
(24, 'ITP4511', 'A', 'IT114105', '2019-10-18', '12:30:00', '2.5'),
(25, 'ITP4506', 'A', 'IT114105', '2019-10-21', '08:00:00', '2.0'),
(26, 'ITP4506', 'A', 'IT114105', '2019-10-22', '12:30:00', '2.5'),
(27, 'ITP4507', 'A', 'IT114105', '2019-10-22', '15:00:00', '2.0'),
(28, 'ITP4507', 'A', 'IT114105', '2019-10-23', '10:00:00', '2.5'),
(29, 'ITP4511', 'A', 'IT114105', '2019-10-24', '08:30:00', '2.0'),
(30, 'ITP4511', 'A', 'IT114105', '2019-10-25', '12:30:00', '2.5'),
(31, 'ITP4506', 'A', 'IT114105', '2019-10-28', '08:00:00', '2.0'),
(32, 'ITP4506', 'A', 'IT114105', '2019-10-29', '12:30:00', '2.5'),
(33, 'ITP4507', 'A', 'IT114105', '2019-10-29', '15:00:00', '2.0'),
(34, 'ITP4507', 'A', 'IT114105', '2019-10-30', '10:00:00', '2.5'),
(35, 'ITP4511', 'A', 'IT114105', '2019-10-31', '08:30:00', '2.0'),
(36, 'ITP4511', 'A', 'IT114105', '2019-11-01', '12:30:00', '2.5'),
(37, 'ITP4506', 'A', 'IT114105', '2019-11-04', '08:00:00', '2.0'),
(38, 'ITP4506', 'A', 'IT114105', '2019-11-05', '12:30:00', '2.5'),
(39, 'ITP4507', 'A', 'IT114105', '2019-11-05', '15:00:00', '2.0'),
(40, 'ITP4507', 'A', 'IT114105', '2019-11-06', '10:00:00', '2.5'),
(41, 'ITP4511', 'A', 'IT114105', '2019-11-07', '08:30:00', '2.0'),
(42, 'ITP4511', 'A', 'IT114105', '2019-11-08', '12:30:00', '2.5'),
(43, 'ITP4506', 'A', 'IT114105', '2019-11-11', '08:00:00', '2.0'),
(44, 'ITP4506', 'A', 'IT114105', '2019-11-12', '12:30:00', '2.5'),
(45, 'ITP4507', 'A', 'IT114105', '2019-11-12', '15:00:00', '2.0'),
(46, 'ITP4507', 'A', 'IT114105', '2019-11-13', '10:00:00', '2.5'),
(47, 'ITP4511', 'A', 'IT114105', '2019-11-14', '08:30:00', '2.0'),
(48, 'ITP4511', 'A', 'IT114105', '2019-11-15', '12:30:00', '2.5'),
(49, 'ITP4506', 'A', 'IT114105', '2019-11-18', '08:00:00', '2.0'),
(50, 'ITP4506', 'A', 'IT114105', '2019-11-19', '12:30:00', '2.5'),
(51, 'ITP4507', 'A', 'IT114105', '2019-11-19', '15:00:00', '2.0'),
(52, 'ITP4507', 'A', 'IT114105', '2019-11-20', '10:00:00', '2.5'),
(53, 'ITP4511', 'A', 'IT114105', '2019-11-21', '08:30:00', '2.0'),
(54, 'ITP4511', 'A', 'IT114105', '2019-11-22', '12:30:00', '2.5'),
(55, 'ITP4506', 'A', 'IT114105', '2019-11-25', '08:00:00', '2.0'),
(56, 'ITP4506', 'A', 'IT114105', '2019-11-26', '12:30:00', '2.5'),
(57, 'ITP4507', 'A', 'IT114105', '2019-11-26', '15:00:00', '2.0'),
(58, 'ITP4507', 'A', 'IT114105', '2019-11-27', '10:00:00', '2.5'),
(59, 'ITP4511', 'A', 'IT114105', '2019-11-28', '08:30:00', '2.0'),
(60, 'ITP4511', 'A', 'IT114105', '2019-11-29', '12:30:00', '2.5'),
(61, 'ITP4506', 'A', 'IT114105', '2019-12-02', '08:00:00', '2.0'),
(62, 'ITP4506', 'A', 'IT114105', '2019-12-03', '12:30:00', '2.5'),
(63, 'ITP4507', 'A', 'IT114105', '2019-12-03', '15:00:00', '2.0'),
(64, 'ITP4507', 'A', 'IT114105', '2019-12-04', '10:00:00', '2.5'),
(65, 'ITP4511', 'A', 'IT114105', '2019-12-05', '08:30:00', '2.0'),
(66, 'ITP4511', 'A', 'IT114105', '2019-12-06', '12:30:00', '2.5'),
(67, 'ITP4506', 'A', 'IT114105', '2019-12-09', '08:00:00', '2.0'),
(68, 'ITP4506', 'A', 'IT114105', '2019-12-10', '12:30:00', '2.5'),
(69, 'ITP4507', 'A', 'IT114105', '2019-12-10', '15:00:00', '2.0'),
(70, 'ITP4507', 'A', 'IT114105', '2019-12-11', '10:00:00', '2.5'),
(71, 'ITP4511', 'A', 'IT114105', '2019-12-12', '08:30:00', '2.0'),
(72, 'ITP4511', 'A', 'IT114105', '2019-12-13', '12:30:00', '2.5'),
(73, 'ITP4506', 'A', 'IT114105', '2019-12-16', '08:00:00', '2.0'),
(74, 'ITP4506', 'A', 'IT114105', '2019-12-17', '12:30:00', '2.5'),
(75, 'ITP4507', 'A', 'IT114105', '2019-12-17', '15:00:00', '2.0'),
(76, 'ITP4507', 'A', 'IT114105', '2019-12-18', '10:00:00', '2.5'),
(77, 'ITP4511', 'A', 'IT114105', '2019-12-19', '08:30:00', '2.0'),
(78, 'ITP4511', 'A', 'IT114105', '2019-12-20', '12:30:00', '2.5'),
(79, 'ITP4506', 'A', 'IT114105', '2019-12-23', '08:00:00', '2.0'),
(80, 'ITP4506', 'A', 'IT114105', '2019-12-24', '12:30:00', '2.5'),
(81, 'ITP4507', 'A', 'IT114105', '2019-12-24', '15:00:00', '2.0'),
(82, 'ITP4507', 'A', 'IT114105', '2019-12-25', '10:00:00', '2.5'),
(83, 'ITP4511', 'A', 'IT114105', '2019-12-26', '08:30:00', '2.0'),
(84, 'ITP4511', 'A', 'IT114105', '2019-12-27', '12:30:00', '2.5'),
(85, 'ITP4506', 'B', 'IT114105', '2019-09-30', '08:00:00', '2.0'),
(86, 'ITP4506', 'B', 'IT114105', '2019-10-01', '12:30:00', '2.5'),
(87, 'ITP4507', 'B', 'IT114105', '2019-10-01', '15:00:00', '2.0'),
(88, 'ITP4507', 'B', 'IT114105', '2019-10-02', '10:00:00', '2.5'),
(89, 'ITP4511', 'B', 'IT114105', '2019-10-03', '08:30:00', '2.0'),
(90, 'ITP4511', 'B', 'IT114105', '2019-10-04', '12:30:00', '2.5'),
(91, 'ITP4506', 'B', 'IT114105', '2019-10-07', '08:00:00', '2.0'),
(92, 'ITP4506', 'B', 'IT114105', '2019-10-08', '12:30:00', '2.5'),
(93, 'ITP4507', 'B', 'IT114105', '2019-10-08', '15:00:00', '2.0'),
(94, 'ITP4507', 'B', 'IT114105', '2019-10-09', '10:00:00', '2.5'),
(95, 'ITP4511', 'B', 'IT114105', '2019-10-10', '08:30:00', '2.0'),
(96, 'ITP4511', 'B', 'IT114105', '2019-10-11', '12:30:00', '2.5'),
(97, 'ITP4506', 'B', 'IT114105', '2019-10-14', '08:00:00', '2.0'),
(98, 'ITP4506', 'B', 'IT114105', '2019-10-15', '12:30:00', '2.5'),
(99, 'ITP4507', 'B', 'IT114105', '2019-10-15', '15:00:00', '2.0'),
(100, 'ITP4507', 'B', 'IT114105', '2019-10-16', '10:00:00', '2.5'),
(101, 'ITP4511', 'B', 'IT114105', '2019-10-17', '08:30:00', '2.0'),
(102, 'ITP4511', 'B', 'IT114105', '2019-10-18', '12:30:00', '2.5'),
(103, 'ITP4506', 'B', 'IT114105', '2019-10-21', '08:00:00', '2.0'),
(104, 'ITP4506', 'B', 'IT114105', '2019-10-22', '12:30:00', '2.5'),
(105, 'ITP4507', 'B', 'IT114105', '2019-10-22', '15:00:00', '2.0'),
(106, 'ITP4507', 'B', 'IT114105', '2019-10-23', '10:00:00', '2.5'),
(107, 'ITP4511', 'B', 'IT114105', '2019-10-24', '08:30:00', '2.0'),
(108, 'ITP4511', 'B', 'IT114105', '2019-10-25', '12:30:00', '2.5'),
(109, 'ITP4506', 'B', 'IT114105', '2019-10-28', '08:00:00', '2.0'),
(110, 'ITP4506', 'B', 'IT114105', '2019-10-29', '12:30:00', '2.5'),
(111, 'ITP4507', 'B', 'IT114105', '2019-10-29', '15:00:00', '2.0'),
(112, 'ITP4507', 'B', 'IT114105', '2019-10-30', '10:00:00', '2.5'),
(113, 'ITP4511', 'B', 'IT114105', '2019-10-31', '08:30:00', '2.0'),
(114, 'ITP4511', 'B', 'IT114105', '2019-11-01', '12:30:00', '2.5'),
(115, 'ITP4506', 'B', 'IT114105', '2019-11-04', '08:00:00', '2.0'),
(116, 'ITP4506', 'B', 'IT114105', '2019-11-05', '12:30:00', '2.5'),
(117, 'ITP4507', 'B', 'IT114105', '2019-11-05', '15:00:00', '2.0'),
(118, 'ITP4507', 'B', 'IT114105', '2019-11-06', '10:00:00', '2.5'),
(119, 'ITP4511', 'B', 'IT114105', '2019-11-07', '08:30:00', '2.0'),
(120, 'ITP4511', 'B', 'IT114105', '2019-11-08', '12:30:00', '2.5'),
(121, 'ITP4506', 'B', 'IT114105', '2019-11-11', '08:00:00', '2.0'),
(122, 'ITP4506', 'B', 'IT114105', '2019-11-12', '12:30:00', '2.5'),
(123, 'ITP4507', 'B', 'IT114105', '2019-11-12', '15:00:00', '2.0'),
(124, 'ITP4507', 'B', 'IT114105', '2019-11-13', '10:00:00', '2.5'),
(125, 'ITP4511', 'B', 'IT114105', '2019-11-14', '08:30:00', '2.0'),
(126, 'ITP4511', 'B', 'IT114105', '2019-11-15', '12:30:00', '2.5'),
(127, 'ITP4506', 'B', 'IT114105', '2019-11-18', '08:00:00', '2.0'),
(128, 'ITP4506', 'B', 'IT114105', '2019-11-19', '12:30:00', '2.5'),
(129, 'ITP4507', 'B', 'IT114105', '2019-11-19', '15:00:00', '2.0'),
(130, 'ITP4507', 'B', 'IT114105', '2019-11-20', '10:00:00', '2.5'),
(131, 'ITP4511', 'B', 'IT114105', '2019-11-21', '08:30:00', '2.0'),
(132, 'ITP4511', 'B', 'IT114105', '2019-11-22', '12:30:00', '2.5'),
(133, 'ITP4506', 'B', 'IT114105', '2019-11-25', '08:00:00', '2.0'),
(134, 'ITP4506', 'B', 'IT114105', '2019-11-26', '12:30:00', '2.5'),
(135, 'ITP4507', 'B', 'IT114105', '2019-11-26', '15:00:00', '2.0'),
(136, 'ITP4507', 'B', 'IT114105', '2019-11-27', '10:00:00', '2.5'),
(137, 'ITP4511', 'B', 'IT114105', '2019-11-28', '08:30:00', '2.0'),
(138, 'ITP4511', 'B', 'IT114105', '2019-11-29', '12:30:00', '2.5'),
(139, 'ITP4506', 'B', 'IT114105', '2019-12-02', '08:00:00', '2.0'),
(140, 'ITP4506', 'B', 'IT114105', '2019-12-03', '12:30:00', '2.5'),
(141, 'ITP4507', 'B', 'IT114105', '2019-12-03', '15:00:00', '2.0'),
(142, 'ITP4507', 'B', 'IT114105', '2019-12-04', '10:00:00', '2.5'),
(143, 'ITP4511', 'B', 'IT114105', '2019-12-05', '08:30:00', '2.0'),
(144, 'ITP4511', 'B', 'IT114105', '2019-12-06', '12:30:00', '2.5'),
(145, 'ITP4506', 'B', 'IT114105', '2019-12-09', '08:00:00', '2.0'),
(146, 'ITP4506', 'B', 'IT114105', '2019-12-10', '12:30:00', '2.5'),
(147, 'ITP4507', 'B', 'IT114105', '2019-12-10', '15:00:00', '2.0'),
(148, 'ITP4507', 'B', 'IT114105', '2019-12-11', '10:00:00', '2.5'),
(149, 'ITP4511', 'B', 'IT114105', '2019-12-12', '08:30:00', '2.0'),
(150, 'ITP4511', 'B', 'IT114105', '2019-12-13', '12:30:00', '2.5'),
(151, 'ITP4506', 'B', 'IT114105', '2019-12-16', '08:00:00', '2.0'),
(152, 'ITP4506', 'B', 'IT114105', '2019-12-17', '12:30:00', '2.5'),
(153, 'ITP4507', 'B', 'IT114105', '2019-12-17', '15:00:00', '2.0'),
(154, 'ITP4507', 'B', 'IT114105', '2019-12-18', '10:00:00', '2.5'),
(155, 'ITP4511', 'B', 'IT114105', '2019-12-19', '08:30:00', '2.0'),
(156, 'ITP4511', 'B', 'IT114105', '2019-12-20', '12:30:00', '2.5'),
(157, 'ITP4506', 'B', 'IT114105', '2019-12-23', '08:00:00', '2.0'),
(158, 'ITP4506', 'B', 'IT114105', '2019-12-24', '12:30:00', '2.5'),
(159, 'ITP4507', 'B', 'IT114105', '2019-12-24', '15:00:00', '2.0'),
(160, 'ITP4507', 'B', 'IT114105', '2019-12-25', '10:00:00', '2.5'),
(161, 'ITP4511', 'B', 'IT114105', '2019-12-26', '08:30:00', '2.0'),
(162, 'ITP4511', 'B', 'IT114105', '2019-12-27', '12:30:00', '2.5'),
(163, 'ITP4506', 'C', 'IT114105', '2019-09-30', '08:00:00', '2.0'),
(164, 'ITP4506', 'C', 'IT114105', '2019-10-01', '12:30:00', '2.5'),
(165, 'ITP4507', 'C', 'IT114105', '2019-10-01', '15:00:00', '2.0'),
(166, 'ITP4507', 'C', 'IT114105', '2019-10-02', '10:00:00', '2.5'),
(167, 'ITP4511', 'C', 'IT114105', '2019-10-03', '08:30:00', '2.0'),
(168, 'ITP4511', 'C', 'IT114105', '2019-10-04', '12:30:00', '2.5'),
(169, 'ITP4506', 'C', 'IT114105', '2019-10-07', '08:00:00', '2.0'),
(170, 'ITP4506', 'C', 'IT114105', '2019-10-08', '12:30:00', '2.5'),
(171, 'ITP4507', 'C', 'IT114105', '2019-10-08', '15:00:00', '2.0'),
(172, 'ITP4507', 'C', 'IT114105', '2019-10-09', '10:00:00', '2.5'),
(173, 'ITP4511', 'C', 'IT114105', '2019-10-10', '08:30:00', '2.0'),
(174, 'ITP4511', 'C', 'IT114105', '2019-10-11', '12:30:00', '2.5'),
(175, 'ITP4506', 'C', 'IT114105', '2019-10-14', '08:00:00', '2.0'),
(176, 'ITP4506', 'C', 'IT114105', '2019-10-15', '12:30:00', '2.5'),
(177, 'ITP4507', 'C', 'IT114105', '2019-10-15', '15:00:00', '2.0'),
(178, 'ITP4507', 'C', 'IT114105', '2019-10-16', '10:00:00', '2.5'),
(179, 'ITP4511', 'C', 'IT114105', '2019-10-17', '08:30:00', '2.0'),
(180, 'ITP4511', 'C', 'IT114105', '2019-10-18', '12:30:00', '2.5'),
(181, 'ITP4506', 'C', 'IT114105', '2019-10-21', '08:00:00', '2.0'),
(182, 'ITP4506', 'C', 'IT114105', '2019-10-22', '12:30:00', '2.5'),
(183, 'ITP4507', 'C', 'IT114105', '2019-10-22', '15:00:00', '2.0'),
(184, 'ITP4507', 'C', 'IT114105', '2019-10-23', '10:00:00', '2.5'),
(185, 'ITP4511', 'C', 'IT114105', '2019-10-24', '08:30:00', '2.0'),
(186, 'ITP4511', 'C', 'IT114105', '2019-10-25', '12:30:00', '2.5'),
(187, 'ITP4506', 'C', 'IT114105', '2019-10-28', '08:00:00', '2.0'),
(188, 'ITP4506', 'C', 'IT114105', '2019-10-29', '12:30:00', '2.5'),
(189, 'ITP4507', 'C', 'IT114105', '2019-10-29', '15:00:00', '2.0'),
(190, 'ITP4507', 'C', 'IT114105', '2019-10-30', '10:00:00', '2.5'),
(191, 'ITP4511', 'C', 'IT114105', '2019-10-31', '08:30:00', '2.0'),
(192, 'ITP4511', 'C', 'IT114105', '2019-11-01', '12:30:00', '2.5'),
(193, 'ITP4506', 'C', 'IT114105', '2019-11-04', '08:00:00', '2.0'),
(194, 'ITP4506', 'C', 'IT114105', '2019-11-05', '12:30:00', '2.5'),
(195, 'ITP4507', 'C', 'IT114105', '2019-11-05', '15:00:00', '2.0'),
(196, 'ITP4507', 'C', 'IT114105', '2019-11-06', '10:00:00', '2.5'),
(197, 'ITP4511', 'C', 'IT114105', '2019-11-07', '08:30:00', '2.0'),
(198, 'ITP4511', 'C', 'IT114105', '2019-11-08', '12:30:00', '2.5'),
(199, 'ITP4506', 'C', 'IT114105', '2019-11-11', '08:00:00', '2.0'),
(200, 'ITP4506', 'C', 'IT114105', '2019-11-12', '12:30:00', '2.5'),
(201, 'ITP4507', 'C', 'IT114105', '2019-11-12', '15:00:00', '2.0'),
(202, 'ITP4507', 'C', 'IT114105', '2019-11-13', '10:00:00', '2.5'),
(203, 'ITP4511', 'C', 'IT114105', '2019-11-14', '08:30:00', '2.0'),
(204, 'ITP4511', 'C', 'IT114105', '2019-11-15', '12:30:00', '2.5'),
(205, 'ITP4506', 'C', 'IT114105', '2019-11-18', '08:00:00', '2.0'),
(206, 'ITP4506', 'C', 'IT114105', '2019-11-19', '12:30:00', '2.5'),
(207, 'ITP4507', 'C', 'IT114105', '2019-11-19', '15:00:00', '2.0'),
(208, 'ITP4507', 'C', 'IT114105', '2019-11-20', '10:00:00', '2.5'),
(209, 'ITP4511', 'C', 'IT114105', '2019-11-21', '08:30:00', '2.0'),
(210, 'ITP4511', 'C', 'IT114105', '2019-11-22', '12:30:00', '2.5'),
(211, 'ITP4506', 'C', 'IT114105', '2019-11-25', '08:00:00', '2.0'),
(212, 'ITP4506', 'C', 'IT114105', '2019-11-26', '12:30:00', '2.5'),
(213, 'ITP4507', 'C', 'IT114105', '2019-11-26', '15:00:00', '2.0'),
(214, 'ITP4507', 'C', 'IT114105', '2019-11-27', '10:00:00', '2.5'),
(215, 'ITP4511', 'C', 'IT114105', '2019-11-28', '08:30:00', '2.0'),
(216, 'ITP4511', 'C', 'IT114105', '2019-11-29', '12:30:00', '2.5'),
(217, 'ITP4506', 'C', 'IT114105', '2019-12-02', '08:00:00', '2.0'),
(218, 'ITP4506', 'C', 'IT114105', '2019-12-03', '12:30:00', '2.5'),
(219, 'ITP4507', 'C', 'IT114105', '2019-12-03', '15:00:00', '2.0'),
(220, 'ITP4507', 'C', 'IT114105', '2019-12-04', '10:00:00', '2.5'),
(221, 'ITP4511', 'C', 'IT114105', '2019-12-05', '08:30:00', '2.0'),
(222, 'ITP4511', 'C', 'IT114105', '2019-12-06', '12:30:00', '2.5'),
(223, 'ITP4506', 'C', 'IT114105', '2019-12-09', '08:00:00', '2.0'),
(224, 'ITP4506', 'C', 'IT114105', '2019-12-10', '12:30:00', '2.5'),
(225, 'ITP4507', 'C', 'IT114105', '2019-12-10', '15:00:00', '2.0'),
(226, 'ITP4507', 'C', 'IT114105', '2019-12-11', '10:00:00', '2.5'),
(227, 'ITP4511', 'C', 'IT114105', '2019-12-12', '08:30:00', '2.0'),
(228, 'ITP4511', 'C', 'IT114105', '2019-12-13', '12:30:00', '2.5'),
(229, 'ITP4506', 'C', 'IT114105', '2019-12-16', '08:00:00', '2.0'),
(230, 'ITP4506', 'C', 'IT114105', '2019-12-17', '12:30:00', '2.5'),
(231, 'ITP4507', 'C', 'IT114105', '2019-12-17', '15:00:00', '2.0'),
(232, 'ITP4507', 'C', 'IT114105', '2019-12-18', '10:00:00', '2.5'),
(233, 'ITP4511', 'C', 'IT114105', '2019-12-19', '08:30:00', '2.0'),
(234, 'ITP4511', 'C', 'IT114105', '2019-12-20', '12:30:00', '2.5'),
(235, 'ITP4506', 'C', 'IT114105', '2019-12-23', '08:00:00', '2.0'),
(236, 'ITP4506', 'C', 'IT114105', '2019-12-24', '12:30:00', '2.5'),
(237, 'ITP4507', 'C', 'IT114105', '2019-12-24', '15:00:00', '2.0'),
(238, 'ITP4507', 'C', 'IT114105', '2019-12-25', '10:00:00', '2.5'),
(239, 'ITP4511', 'C', 'IT114105', '2019-12-26', '08:30:00', '2.0'),
(240, 'ITP4511', 'C', 'IT114105', '2019-12-27', '12:30:00', '2.5');

-- --------------------------------------------------------

--
-- Table structure for table `Module`
--

CREATE TABLE `Module` (
  `ModuleID` varchar(10) NOT NULL,
  `ModuleName` varchar(50) NOT NULL,
  `TotalHour` int(2) NOT NULL
) ENGINE=InnoDB DEFAULT CHARSET=utf8;

--
-- Dumping data for table `Module`
--

INSERT INTO `Module` (`ModuleID`, `ModuleName`, `TotalHour`) VALUES
('ITP4506', 'Human Computer Interaction & GUI Programming', 52),
('ITP4507', 'Contemporary Topics in Software Engineering', 52),
('ITP4511', 'Enterprise Systems Development', 52);

-- --------------------------------------------------------

--
-- Table structure for table `Program`
--

CREATE TABLE `Program` (
  `ProgramID` varchar(10) NOT NULL,
  `ProgramName` varchar(10) NOT NULL
) ENGINE=InnoDB DEFAULT CHARSET=utf8;

--
-- Dumping data for table `Program`
--

INSERT INTO `Program` (`ProgramID`, `ProgramName`) VALUES
('IT114105', 'IT-SE'),
('IT114107', 'IT-GSD');

-- --------------------------------------------------------

--
-- Table structure for table `Program_Module`
--

CREATE TABLE `Program_Module` (
  `ModuleID` varchar(10) NOT NULL,
  `ClassID` varchar(2) NOT NULL,
  `ProgramID` varchar(10) NOT NULL,
  `TeacherID` int(10) NOT NULL
) ENGINE=InnoDB DEFAULT CHARSET=utf8;

--
-- Dumping data for table `Program_Module`
--

INSERT INTO `Program_Module` (`ModuleID`, `ClassID`, `ProgramID`, `TeacherID`) VALUES
('ITP4507', 'A', 'IT114105', 12345678),
('ITP4507', 'A', 'IT114107', 12345678),
('ITP4507', 'B', 'IT114105', 12345678),
('ITP4507', 'B', 'IT114107', 12345678),
('ITP4507', 'C', 'IT114105', 12345678),
('ITP4507', 'C', 'IT114107', 12345678),
('ITP4507', 'D', 'IT114107', 12345678),
('ITP4511', 'A', 'IT114105', 12345678),
('ITP4511', 'B', 'IT114105', 12345678),
('ITP4511', 'C', 'IT114105', 12345678),
('ITP4506', 'A', 'IT114105', 87654321),
('ITP4506', 'A', 'IT114107', 87654321),
('ITP4506', 'B', 'IT114105', 87654321),
('ITP4506', 'B', 'IT114107', 87654321),
('ITP4506', 'C', 'IT114105', 87654321),
('ITP4506', 'C', 'IT114107', 87654321),
('ITP4506', 'D', 'IT114107', 87654321);

-- --------------------------------------------------------

--
-- Table structure for table `Student`
--

CREATE TABLE `Student` (
  `StudentID` int(10) NOT NULL,
  `ClassID` varchar(2) NOT NULL,
  `ProgramID` varchar(10) NOT NULL,
  `StudentName` varchar(20) NOT NULL,
  `Password` varchar(20) NOT NULL
) ENGINE=InnoDB DEFAULT CHARSET=utf8;

--
-- Dumping data for table `Student`
--

INSERT INTO `Student` (`StudentID`, `ClassID`, `ProgramID`, `StudentName`, `Password`) VALUES
(100000000, 'A', 'IT114107', 'Stud1', '111111111'),
(100001111, 'C', 'IT114105', 'Student1', '111111111'),
(100110011, 'C', 'IT114107', 'Stud11', '111111111'),
(101010101, 'D', 'IT114107', 'Stud111', '111111111'),
(111001100, 'B', 'IT114107', 'Stud10', '111111111'),
(111110000, 'B', 'IT114105', 'Student1', '111111111'),
(111111111, 'A', 'IT114105', 'Student1', '111111111'),
(180006006, 'A', 'IT114105', 'Tommy', '12345678'),
(200000000, 'A', 'IT114107', 'Stud2', '222222222'),
(200002222, 'C', 'IT114105', 'Student22', '222222222'),
(200220022, 'C', 'IT114107', 'Stud22', '222222222'),
(202020202, 'D', 'IT114107', 'Stud222', '222222222'),
(222002200, 'B', 'IT114107', 'Stud20', '222222222'),
(222220000, 'B', 'IT114105', 'Student20', '222222222'),
(222222222, 'A', 'IT114105', 'Student2', '222222222'),
(300000000, 'A', 'IT114107', 'Stud3', '333333333'),
(300003333, 'C', 'IT114105', 'Student33', '333333333'),
(300330033, 'C', 'IT114107', 'Stud33', '333333333'),
(303030303, 'D', 'IT114107', 'Stud333', '333333333'),
(333003300, 'B', 'IT114107', 'Stud30', '333333333'),
(333330000, 'B', 'IT114105', 'Student30', '333333333'),
(333333333, 'A', 'IT114105', 'Student3', '333333333'),
(400000000, 'A', 'IT114107', 'Stud4', '444444444'),
(400004444, 'C', 'IT114105', 'Student44', '444444444'),
(400440044, 'C', 'IT114107', 'Stud44', '444444444'),
(404040404, 'D', 'IT114107', 'Stud444', '444444444'),
(444004400, 'B', 'IT114107', 'Stud40', '444444444'),
(444440000, 'B', 'IT114105', 'Student40', '444444444'),
(444444444, 'A', 'IT114105', 'Student4', '444444444'),
(500000000, 'A', 'IT114107', 'Stud5', '555555555'),
(500005555, 'C', 'IT114105', 'Student55', '555555555'),
(500550055, 'C', 'IT114107', 'Stud55', '555555555'),
(505050505, 'D', 'IT114107', 'Stud555', '555555555'),
(555005500, 'B', 'IT114107', 'Stud50', '555555555'),
(555550000, 'B', 'IT114105', 'Student50', '555555555'),
(555555555, 'A', 'IT114105', 'Student5', '555555555'),
(600000000, 'A', 'IT114107', 'Stud6', '666666666'),
(600006666, 'C', 'IT114105', 'Student66', '666666666'),
(600660066, 'C', 'IT114107', 'Stud66', '666666666'),
(606060606, 'D', 'IT114107', 'Stud666', '666666666'),
(666006600, 'B', 'IT114107', 'Stud60', '666666666'),
(666660000, 'B', 'IT114105', 'Student60', '666666666'),
(666666666, 'A', 'IT114105', 'Student6', '666666666'),
(700000000, 'A', 'IT114107', 'Stud7', '777777777'),
(700007777, 'C', 'IT114105', 'Student77', '777777777'),
(700770077, 'C', 'IT114107', 'Stud77', '777777777'),
(707070707, 'D', 'IT114107', 'Stud777', '777777777'),
(777007700, 'B', 'IT114107', 'Stud70', '777777777'),
(777770000, 'B', 'IT114105', 'Student70', '777777777'),
(777777777, 'A', 'IT114105', 'Student7', '777777777'),
(800000000, 'A', 'IT114107', 'Stud8', '888888888'),
(800008888, 'C', 'IT114105', 'Student88', '888888888'),
(800880088, 'C', 'IT114107', 'Stud88', '888888888'),
(808080808, 'D', 'IT114107', 'Stud888', '888888888'),
(888008800, 'B', 'IT114107', 'Stud80', '888888888'),
(888880000, 'B', 'IT114105', 'Student80', '888888888'),
(888888888, 'A', 'IT114105', 'Student8', '888888888'),
(900000000, 'A', 'IT114107', 'Stud9', '999999999'),
(900009999, 'C', 'IT114105', 'Student99', '999999999'),
(900990099, 'C', 'IT114107', 'Stud99', '999999999'),
(909090909, 'D', 'IT114107', 'Stud999', '999999999'),
(999009900, 'B', 'IT114107', 'Stud90', '999999999'),
(999990000, 'B', 'IT114105', 'Student90', '999999999'),
(999999999, 'A', 'IT114105', 'Student9', '999999999');

-- --------------------------------------------------------

--
-- Table structure for table `Teacher`
--

CREATE TABLE `Teacher` (
  `TeacherID` int(10) NOT NULL,
  `TeacherName` varchar(20) NOT NULL,
  `Password` varchar(20) NOT NULL,
  `Permission` int(1) NOT NULL
) ENGINE=InnoDB DEFAULT CHARSET=utf8;

--
-- Dumping data for table `Teacher`
--

INSERT INTO `Teacher` (`TeacherID`, `TeacherName`, `Password`, `Permission`) VALUES
(12345678, 'Jesse', '12345678', 2),
(87654321, 'Leung', '87654321', 2),
(100000000, 'Teacher10', '111111111', 2),
(101010101, 'Teacher11', '111111111', 3),
(111111111, 'Teacher1', '111111111', 1),
(200000000, 'Teacher20', '222222222', 2),
(202020202, 'Teacher22', '222222222', 3),
(222222222, 'Teacher2', '222222222', 1),
(300000000, 'Teacher30', '333333333', 2),
(303030303, 'Teacher33', '333333333', 3),
(333333333, 'Teacher3', '333333333', 1),
(400000000, 'Teacher40', '444444444', 2),
(404040404, 'Teacher44', '444444444', 3),
(444444444, 'Teacher4', '444444444', 1),
(500000000, 'Teacher50', '555555555', 2),
(505050505, 'Teacher55', '555555555', 3),
(555555555, 'Teacher5', '555555555', 1),
(600000000, 'Teacher60', '666666666', 2),
(606060606, 'Teacher66', '666666666', 3),
(666666666, 'Teacher6', '666666666', 1),
(700000000, 'Teacher70', '777777777', 2),
(707070707, 'Teacher77', '777777777', 3),
(777777777, 'Teacher7', '777777777', 1),
(800000000, 'Teacher80', '888888888', 2),
(808080808, 'Teacher88', '888888888', 3),
(888888888, 'Teacher8', '888888888', 1),
(900000000, 'Teacher90', '999999999', 2),
(909090909, 'Teacher99', '999999999', 3),
(999999999, 'Teacher9', '999999999', 1);

--
-- Indexes for dumped tables
--

--
-- Indexes for table `Admin`
--
ALTER TABLE `Admin`
  ADD PRIMARY KEY (`AdminID`);

--
-- Indexes for table `Attendent`
--
ALTER TABLE `Attendent`
  ADD KEY `StudentID` (`StudentID`),
  ADD KEY `LessionID` (`LessionID`);

--
-- Indexes for table `Class`
--
ALTER TABLE `Class`
  ADD PRIMARY KEY (`ClassID`,`ProgramID`),
  ADD KEY `ProgramID` (`ProgramID`);

--
-- Indexes for table `Lesson`
--
ALTER TABLE `Lesson`
  ADD PRIMARY KEY (`LessionID`),
  ADD KEY `ModuleID` (`ModuleID`,`ClassID`,`ProgramID`);

--
-- Indexes for table `Module`
--
ALTER TABLE `Module`
  ADD PRIMARY KEY (`ModuleID`);

--
-- Indexes for table `Program`
--
ALTER TABLE `Program`
  ADD PRIMARY KEY (`ProgramID`);

--
-- Indexes for table `Program_Module`
--
ALTER TABLE `Program_Module`
  ADD PRIMARY KEY (`ModuleID`,`ClassID`,`ProgramID`),
  ADD KEY `TeacherID` (`TeacherID`),
  ADD KEY `program_module_ibfk_2` (`ClassID`,`ProgramID`);

--
-- Indexes for table `Student`
--
ALTER TABLE `Student`
  ADD PRIMARY KEY (`StudentID`),
  ADD KEY `ProgramID` (`ProgramID`),
  ADD KEY `ClassID` (`ClassID`,`ProgramID`);

--
-- Indexes for table `Teacher`
--
ALTER TABLE `Teacher`
  ADD PRIMARY KEY (`TeacherID`);

--
-- AUTO_INCREMENT for dumped tables
--

--
-- AUTO_INCREMENT for table `Lesson`
--
ALTER TABLE `Lesson`
  MODIFY `LessionID` int(10) NOT NULL AUTO_INCREMENT, AUTO_INCREMENT=241;

--
-- Constraints for dumped tables
--

--
-- Constraints for table `Attendent`
--
ALTER TABLE `Attendent`
  ADD CONSTRAINT `attendent_ibfk_1` FOREIGN KEY (`StudentID`) REFERENCES `Student` (`StudentID`),
  ADD CONSTRAINT `attendent_ibfk_2` FOREIGN KEY (`LessionID`) REFERENCES `Lesson` (`LessionID`);

--
-- Constraints for table `Class`
--
ALTER TABLE `Class`
  ADD CONSTRAINT `class_ibfk_1` FOREIGN KEY (`ProgramID`) REFERENCES `Program` (`ProgramID`);

--
-- Constraints for table `Lesson`
--
ALTER TABLE `Lesson`
  ADD CONSTRAINT `lesson_ibfk_1` FOREIGN KEY (`ModuleID`,`ClassID`,`ProgramID`) REFERENCES `Program_Module` (`ModuleID`, `ClassID`, `ProgramID`);

--
-- Constraints for table `Program_Module`
--
ALTER TABLE `Program_Module`
  ADD CONSTRAINT `program_module_ibfk_1` FOREIGN KEY (`ModuleID`) REFERENCES `Module` (`ModuleID`),
  ADD CONSTRAINT `program_module_ibfk_2` FOREIGN KEY (`ClassID`,`ProgramID`) REFERENCES `Class` (`ClassID`, `ProgramID`),
  ADD CONSTRAINT `program_module_ibfk_3` FOREIGN KEY (`TeacherID`) REFERENCES `Teacher` (`TeacherID`);

--
-- Constraints for table `Student`
--
ALTER TABLE `Student`
  ADD CONSTRAINT `student_ibfk_1` FOREIGN KEY (`ClassID`,`ProgramID`) REFERENCES `Class` (`ClassID`, `ProgramID`);
